Code,Name,Description,Price,Default set qts,Width,Depth,Height,Weight,Volume,Manufacturer,Category Type,Stock Status,New Arrivals,Category,Image 1,Image 2,Image 3,Image 4,Image 5,Image 6,Image 7,Image 8,Image 9,Image 10,Image 11,Image 12,Image 13,Image 14,Qty,No of Boxes,(Box 1) Markings,(Box 1) Depth,(Box 1) Width,(Box 1) Height,(Box 1) Weight,(Box 2) Markings,(Box 2) Depth,(Box 2) Width,(Box 2) Height,(Box 2) Weight,(Box 3) Markings,(Box 3) Depth,(Box 3) Width,(Box 3) Height,(Box 3) Weight,(Box 4) Markings,(Box 4) Depth,(Box 4) Width,(Box 4) Height,(Box 4) Weight,(Box 5) Markings,(Box 5) Depth,(Box 5) Width,(Box 5) Height,(Box 5) Weight,(Box 6) Markings,(Box 6) Depth,(Box 6) Width,(Box 6) Height,(Box 6) Weight,(Box 7) Markings,(Box 7) Depth,(Box 7) Width,(Box 7) Height,(Box 7) Weight,(Box 8) Markings,(Box 8) Depth,(Box 8) Width,(Box 8) Height,(Box 8) Weight,(Box 9) Markings,(Box 9) Depth,(Box 9) Width,(Box 9) Height,(Box 9) Weight,(Box 10) Markings,(Box 10) Depth,(Box 10) Width,(Box 10) Height,(Box 10) Weight,sku,Parent Sku
,100 SET,"This living room set has an inviting appeal and comfort. Sofa, Love seat and Chair are accented with wood framing and wrapped in finest genuine Italian leather. Variety of colors available for special ordering. Genuine leather front/matching pvc on the back.Removable CushionDepth of the seat is 21""",4450,,,,,,,SWH Classic  Living,LIVING,stock,TRUE,Sofas Loveseats and Chairs,http://www.esfwholesalefurniture.com/images/product/fullsize/Living-Room-Furniture_Leather-Classic-3-pcs-Sets_100.jpg,http://www.esfwholesalefurniture.com/images/product/fullsize/Living-Room-Furniture_Leather-Classic-3-pcs-Sets_100_side_1.jpg,http://www.esfwholesalefurniture.com/images/product/fullsize/Living-Room-Furniture_Leather-Classic-3-pcs-Sets_100_side_2.jpg,http://www.esfwholesalefurniture.com/images/product/fullsize/Living-Room-Furniture_Leather-Classic-3-pcs-Sets_100_side_3.jpg,http://www.esfwholesalefurniture.com/images/product/fullsize/Living-Room-Furniture_Leather-Classic-3-pcs-Sets_100_side_4.jpg,http://www.esfwholesalefurniture.com/images/product/fullsize/Living-Room-Furniture_Classic-Living-Sets_100_side_5.jpg,,,,,,,,,,,,,,,,,,,,,,,,,,,,,,,,,,,,,,,,,,,,,,,,,,,,,,,,,,,,,p5591,
100CHAIR,100 Chair,,1000,1,42,39,43,59,,,,,,,,,,,,,,,,,,,,,1,1,0100-1-1,39,42,43,59,,,,,,,,,,,,,,,,,,,,,,,,,,,,,,,,,,,,,,,,,,,,,,i6314,p5591
1002,100 Love Seat,,1450,1,61,39,43,101,,,,,,,,,,,,,,,,,,,,,1,1,0100-2-1,39,61,43,101,,,,,,,,,,,,,,,,,,,,,,,,,,,,,,,,,,,,,,,,,,,,,,i6315,p5591
1003,100 Sofa,,2000,1,80,39,43,132,,,,,,,,,,,,,,,,,,,,,1,1,0100-3-1,39,80,43,132,,,,,,,,,,,,,,,,,,,,,,,,,,,,,,,,,,,,,,,,,,,,,,i6316,p5591
,1001 Coffee Table SET,"Contemporary Square 3 Colors Coffee Table perfect to add your space modern and fresh look.

<iframe width=""560"" height=""315"" src=""https://www.youtube.com/embed/_A5HQKImRVI"" frameborder=""0"" allowfullscreen></iframe>",500,,,,,,,Dupen  Spain,LIVING,stock,FALSE,Coffee and End Tables,http://www.esfwholesalefurniture.com/images/product/fullsize/Living-Room-Furniture_Coffee-and-End-Tables_1001-Coffee-Table.jpg,http://www.esfwholesalefurniture.com/images/product/fullsize/Living-Room-Furniture_Coffee-and-End-Tables_1001-Coffee-Table_side_1.jpg,,,,,,,,,,,,,,,,,,,,,,,,,,,,,,,,,,,,,,,,,,,,,,,,,,,,,,,,,,,,,,,,,p6964,
1001COFFEETABLE,1001 Coffee Table,,500,1,32,32,13,65,,,,,,,,,,,,,,,,,,,,,1,1,Box 1,34,34,15,75,,,,,,,,,,,,,,,,,,,,,,,,,,,,,,,,,,,,,,,,,,,,,,i11045,p6964
,110 Coffee Table SET,Color: Dark Walnut,475,,,,,,,Extravaganza Collection,LIVING,stock,FALSE,Coffee and End Tables,http://www.esfwholesalefurniture.com/images/product/fullsize/Living-Room-Furniture_Coffee-and-End-Tables_110-Coffee-Table.jpg,http://www.esfwholesalefurniture.com/images/product/fullsize/Living-Room-Furniture_Coffee-and-End-Tables_110-Coffee-Table_side_1.jpg,,,,,,,,,,,,,,,,,,,,,,,,,,,,,,,,,,,,,,,,,,,,,,,,,,,,,,,,,,,,,,,,,p8329,
110COFFEETABLE,110 Coffee Table,,475,1,44,44,15,50,,,,,,,,,,,,,,,,,,,,,1,1,Box 1,45,45,16,50,,,,,,,,,,,,,,,,,,,,,,,,,,,,,,,,,,,,,,,,,,,,,,i17670,p8329
,110 Dining Arm Chair SET,"Stylish White Arm Chair 
Eco Leather 
Stainless Steel Legs",238,,,,,,,Extravaganza Collection,DINING,stock,TRUE,Chairs,http://www.esfwholesalefurniture.com/images/product/fullsize/Dining-Room-Furniture_Chairs_110-Dining-Arm-Chair.gif,http://www.esfwholesalefurniture.com/images/product/fullsize/Dining-Room-Furniture_Chairs_110-Dining-Arm-Chair_side_1.gif,http://www.esfwholesalefurniture.com/images/product/fullsize/Dining-Room-Furniture_Chairs_110-Dining-Arm-Chair_side_2.gif,http://www.esfwholesalefurniture.com/images/product/fullsize/Dining-Room-Furniture_Chairs_110-Dining-Arm-Chair_side_3.gif,http://www.esfwholesalefurniture.com/images/product/fullsize/Dining-Room-Furniture_Chairs_110-Dining-Arm-Chair_side_4.gif,http://www.esfwholesalefurniture.com/images/product/fullsize/Dining-Room-Furniture_Chairs_110-Dining-Arm-Chair_side_5.gif,http://www.esfwholesalefurniture.com/images/product/fullsize/Dining-Room-Furniture_Chairs_110-Dining-Arm-Chair_side_6.gif,http://www.esfwholesalefurniture.com/images/product/fullsize/Dining-Room-Furniture_Chairs_110-Dining-Arm-Chair_side_7.gif,,,,,,,,,,,,,,,,,,,,,,,,,,,,,,,,,,,,,,,,,,,,,,,,,,,,,,,,,,,p9834,
